…
Read in called starts from our data and analysis of Lee PNAS 2012 data
======================================================================

``` r
tis <- read_tsv("../tables/called_host_tis.tsv") %>% 
  mutate_at(vars(ends_with("_p")), funs(as.numeric)) %>% 
  mutate(sno = seq(1, n())) %>% 
  print()
```

    ## # A tibble: 8,576 x 18
    ##    codon canonical.start tis.start nt_to_atis frame chr.start chr   sample
    ##    <chr>           <int>     <int>      <int> <int>     <int> <chr> <chr> 
    ##  1 CUG               116        70        -46     2   7771339 chr1  ifn   
    ##  2 AUG               391       391          0     0  53940082 chr1  ifn   
    ##  3 GUG               121        59        -62     1   8878632 chr1  ifn   
    ##  4 ACG               121        94        -27     0   8878597 chr1  ifn   
    ##  5 AUG               121       121          0     0   8874907 chr1  ifn   
    ##  6 AUG               436       373        -63     0 184477446 chr1  ifn   
    ##  7 AUG               120       120          0     0  45012267 chr1  ifn   
    ##  8 AUG               132       132          0     0  26239784 chr1  ifn   
    ##  9 AUG                56        56          0     0 162790801 chr1  ifn   
    ## 10 AUG               173        17       -156     0  43970021 chr1  ifn   
    ## # ... with 8,566 more rows, and 10 more variables: gene_name <chr>,
    ## #   cyclo_p <dbl>, cyclo_n <int>, ltm_p <dbl>, ltm_n <int>,
    ## #   tis.chr.start <dbl>, peplen <int>, pep <chr>, tis.type <chr>,
    ## #   sno <int>

``` r
lee_2012_tis <- read_tsv("../tables/lee_2012_called_host_tis.tsv") %>%  
  mutate_at(vars(ends_with("_p")), funs(as.numeric)) %>% 
  mutate(sno = seq(1, n())) %>% 
  # this gets rid of a single misannotated tis
  filter(!is.na(nt_to_atis)) %>% 
  mutate (tis.type = case_when(
    nt_to_atis < 0 ~ "uTIS", 
    nt_to_atis == 0 ~ "aTIS", 
    nt_to_atis > 0 ~ "dTIS")) %>% 
  print()
```

    ## # A tibble: 8,353 x 17
    ##    codon canonical.start tis.start nt_to_atis frame chr.start chr   sample
    ##    <chr>           <int>     <int>      <int> <int>     <int> <chr>  <int>
    ##  1 CUG               116        43        -73     2   7771311 chr1       1
    ##  2 CUG               116        70        -46     2   7771339 chr1       1
    ##  3 AUG                71       138         67     1 114780541 chr1       1
    ##  4 CUG               372       327        -45     0  53888983 chr1       1
    ##  5 CUG               121        63        -58     2   8878629 chr1       1
    ##  6 AUG               121       121          0     0   8874908 chr1       1
    ##  7 AUG                76        76          0     0 109213993 chr1       1
    ##  8 AUG               436       373        -63     0 184477447 chr1       1
    ##  9 AUG               170        68       -102     0  12019533 chr1       1
    ## 10 AUA               143        99        -44     1  43172163 chr1       1
    ## # ... with 8,343 more rows, and 9 more variables: gene_name <chr>,
    ## #   chx_p <dbl>, chx_n <int>, ltm_p <dbl>, ltm_n <int>, peplen <int>,
    ## #   pep <chr>, sno <int>, tis.type <chr>
…
  # get a unique number for each combination of samples 
  group_by(gene_name, nt_to_atis, codon) %>% 
  mutate(nsamples = n()) %>% 
  mutate(combo_num = sum(sample_numbers[sample])) %>% 
  mutate(combo = paste0(sample, collapse = ":")) %>% 
  ungroup() %>% 
  select(-sample) %>% 
  distinct() %>% 
  left_join(tis %>% select(gene_name, codon, nt_to_atis, tis.type,
                           frame, peplen, pep) %>% distinct(),
            by = c("gene_name", "nt_to_atis", "codon")) %>%
  print()
```

    ## # A tibble: 3,827 x 10
    ##    codon nt_to_atis gene_name nsamples combo_num combo tis.type frame
    ##    <chr>      <int> <chr>        <int>     <dbl> <chr> <chr>    <int>
    ##  1 CUG          -46 VAMP3            3        11 ifn:… uTIS         2
    ##  2 AUG            0 HSPB11           4        15 ifn:… aTIS         0
    ##  3 GUG          -62 ENO1             4        15 ifn:… uTIS         1
    ##  4 ACG          -27 ENO1             1         1 ifn   uTIS         0
    ##  5 AUG            0 ENO1             4        15 ifn:… aTIS         0
    ##  6 AUG          -63 C1orf21          3         7 ifn:… uTIS         0
    ##  7 AUG            0 UROD             3        13 ifn:… aTIS         0
    ##  8 AUG            0 CEP85            1         1 ifn   aTIS         0
    ##  9 AUG            0 HSD17B7          4        15 ifn:… aTIS         0
    ## 10 AUG         -156 DPH2             4        15 ifn:… uTIS         0
    ## # ... with 3,817 more rows, and 2 more variables: peplen <int>, pep <chr>

Create combo with chromosome annotations for joining with unfiltered starts later
=================================================================================

``` r
tis_combo_with_chr <- tis_combo %>% 
  right_join(tis %>% select(codon, nt_to_atis, gene_name, sample, chr, chr.start),
             by = c("codon", "nt_to_atis", "gene_name")) %>% 
  print()
```

    ## # A tibble: 8,576 x 13
    ##    codon nt_to_atis gene_name nsamples combo_num combo tis.type frame
    ##    <chr>      <int> <chr>        <int>     <dbl> <chr> <chr>    <int>
    ##  1 CUG          -46 VAMP3            3        11 ifn:… uTIS         2
    ##  2 AUG            0 HSPB11           4        15 ifn:… aTIS         0
    ##  3 GUG          -62 ENO1             4        15 ifn:… uTIS         1
    ##  4 ACG          -27 ENO1             1         1 ifn   uTIS         0
    ##  5 AUG            0 ENO1             4        15 ifn:… aTIS         0
    ##  6 AUG          -63 C1orf21          3         7 ifn:… uTIS         0
    ##  7 AUG            0 UROD             3        13 ifn:… aTIS         0
    ##  8 AUG            0 CEP85            1         1 ifn   aTIS         0
    ##  9 AUG            0 HSD17B7          4        15 ifn:… aTIS         0
    ## 10 AUG         -156 DPH2             4        15 ifn:… uTIS         0
    ## # ... with 8,566 more rows, and 5 more variables: peplen <int>, pep <chr>,
    ## #   sample <chr>, chr <chr>, chr.start <int>
…
  # get a unique number for each combination of samples 
  group_by(gene_name, nt_to_atis, codon) %>% 
  mutate(nsamples = n()) %>% 
  mutate(combo_num = sum(sample)) %>% 
  mutate(combo = paste0(sample, collapse = ":")) %>% 
  ungroup() %>% 
  select(-sample) %>% 
  distinct() %>% 
  left_join(tis %>% select(gene_name, codon, nt_to_atis, tis.type,
                           frame, peplen, pep) %>% distinct(),
            by = c("gene_name", "nt_to_atis", "codon")) %>%
  print()
```

    ## # A tibble: 5,903 x 10
    ##    codon nt_to_atis gene_name nsamples combo_num combo tis.type frame
    ##    <chr>      <int> <chr>        <int>     <int> <chr> <chr>    <int>
    ##  1 CUG          -73 VAMP3            1         1 1     <NA>        NA
    ##  2 CUG          -46 VAMP3            1         1 1     uTIS         2
    ##  3 AUG           67 SIKE1            1         1 1     <NA>        NA
    ##  4 CUG          -45 YIPF1            1         1 1     <NA>        NA
    ##  5 CUG          -58 ENO1             2         3 1:2   <NA>        NA
    ##  6 AUG            0 ENO1             2         3 1:2   aTIS         0
    ##  7 AUG            0 SARS             2         3 1:2   <NA>        NA
    ##  8 AUG          -63 C1orf21          1         1 1     uTIS         0
    ##  9 AUG         -102 MIIP             1         1 1     <NA>        NA
    ## 10 AUA          -44 EBNA1BP2         2         3 1:2   <NA>        NA
    ## # ... with 5,893 more rows, and 2 more variables: peplen <int>, pep <chr>
…
TIS common to all samples
=========================

``` r
common_starts <- tis_combo %>% 
  filter(nsamples == 4) %>% 
  print()
```

    ## # A tibble: 875 x 10
    ##    codon nt_to_atis gene_name nsamples combo_num combo tis.type frame
    ##    <chr>      <int> <chr>        <int>     <dbl> <chr> <chr>    <int>
    ##  1 AUG            0 HSPB11           4        15 ifn:… aTIS         0
    ##  2 GUG          -62 ENO1             4        15 ifn:… uTIS         1
    ##  3 AUG            0 ENO1             4        15 ifn:… aTIS         0
    ##  4 AUG            0 HSD17B7          4        15 ifn:… aTIS         0
    ##  5 AUG         -156 DPH2             4        15 ifn:… uTIS         0
    ##  6 GUG         -269 PRDX1            4        15 ifn:… uTIS         1
    ##  7 AUG            0 PRDX1            4        15 ifn:… aTIS         0
    ##  8 AUG            0 SNRNP40          4        15 ifn:… aTIS         0
    ##  9 AUG            0 PGD              4        15 ifn:… aTIS         0
    ## 10 AUG            0 SH3BGRL3         4        15 ifn:… aTIS         0
    ## # ... with 865 more rows, and 2 more variables: peplen <int>, pep <chr>
…
These are calculated in &lt;analyze\_host\_fold\_changes.md&gt;.

``` r
induced_genes <- list.files("../tables/", pattern = "induced_genes.tsv", 
                            full.names = T) %>% 
  enframe("sno", "file") %>% 
  mutate(data = map(file, read_tsv)) %>% 
  unnest() %>% 
  select(-sno, -file, -treatment2) %>% 
  rename(sample = treatment1, gene_name = symbol) %>% 
  print()
```

    ## # A tibble: 306 x 6
    ##    sample gene_id         baseMean   lfc    pvalue gene_name
    ##    <chr>  <chr>              <dbl> <dbl>     <dbl> <chr>    
    ##  1 ifn    ENSG00000185745    4363.  9.05 3.68e-129 IFIT1    
    ##  2 ifn    ENSG00000119917    1676.  8.21 4.04e- 88 IFIT3    
    ##  3 ifn    ENSG00000135114     620.  7.04 1.22e- 58 OASL     
    ##  4 ifn    ENSG00000156587     411.  4.86 2.47e- 42 UBE2L6   
    ##  5 ifn    ENSG00000115267     583.  7.12 2.80e- 36 IFIH1    
    ##  6 ifn    ENSG00000107201    1090.  6.13 3.25e- 28 DDX58    
    ##  7 ifn    ENSG00000168394     543.  3.81 4.60e- 28 TAP1     
    ##  8 ifn    ENSG00000177409     283.  6.10 3.07e- 27 SAMD9L   
    ##  9 ifn    ENSG00000119922    1113.  7.37 7.91e- 27 IFIT2    
    ## 10 ifn    ENSG00000138646     510.  4.43 9.27e- 26 HERC5    
    ## # ... with 296 more rows
…
